Yudum Paçin - 2 In Class Exercise 1
…
library(tidyverse)
library(nycflights13)

In this exercise, we will explore planes dataset in nycflights13 library . Planes, consists of construction information about 3,322 planes used for all flights departing NYC in 2013.

2.1 Most common planes

10 Most common models, manufacturers of the planes are,

planes %>% 
  group_by(model,manufacturer) %>%
  summarise(say=n()) %>%
  arrange(desc(say),10)

# A tibble: 147 × 3
# Groups:   model [127]
   model       manufacturer                    say
   <chr>       <chr>                         <int>
 1 737-7H4     BOEING                          361
 2 CL-600-2B19 BOMBARDIER INC                  162
 3 A320-232    AIRBUS                          129
 4 A320-232    AIRBUS INDUSTRIE                127
 5 CL-600-2D24 BOMBARDIER INC                  123
 6 737-824     BOEING                          122
 7 EMB-145LR   EMBRAER                         114
 8 737-3H4     BOEING                          105
 9 EMB-145XR   EMBRAER                         104
10 MD-88       MCDONNELL DOUGLAS AIRCRAFT CO   103
# … with 137 more rows
…
